D Database Storing | Spatio-temporal analysis of extreme wind velocities for infrastructure design
…
Object isd_stations belongs to classes sf, tbl_df, tbl, and data.frame. Its description is shown below using the object name.

        class(isd_stations)

[1] "sf"         "tbl_df"     "tbl"        "data.frame"

        isd_stations

Simple feature collection with 100 features and 3 fields
geometry type:  POINT
dimension:      XY
bbox:           xmin: -81.711 ymin: -5.894 xmax: 0 ymax: 13.357
epsg (SRID):    4326
proj4string:    +proj=longlat +datum=WGS84 +no_defs
# A tibble: 100 x 4
      id usaf   station_name                  geometry
   <int> <chr>  <chr>                      <POINT [°]>
 1 13848 690186 SAN JOSE DEL GUAVIA    (-72.633 2.567)
 2 14080 698689 MARANDUA AB            (-68.686 5.524)
 3 14081 698704 AFWA ASSIGNED          (-74.633 4.217)
 4 21913 789820 REINA BEATRIX INTL    (-70.015 12.501)
 5 21918 800000 BOGUS COLOMBIAN                  (0 0)
 6 21919 800010 GUSTAVO ROJAS PINILLA (-81.711 12.584)
 7 21921 800020 EL EMBRUJO            (-81.358 13.357)
 8 21925 800090 SIMON BOLIVAR          (-74.231 11.12)
 9 21926 800220 RAFAEL NUNEZ          (-75.513 10.442)
10 21927 800280 ERNESTO CORTISSOZ      (-74.781 10.89)
# ... with 90 more rows
…
